{
  "live-restore": true,
  "default-address-pools":
  [
    {"base":"10.10.0.0/16","size":24}
  ],
    "bip": "10.11.0.1/24",
    "log-driver": "json-file",
    "log-opts": {
      "max-size": "10m",
      "max-file": "5"
    }
}
